\relax 
\providecommand\hyper@newdestlabel[2]{}
\providecommand*{\memsetcounter}[2]{}
\catcode `:\active 
\catcode `;\active 
\catcode `!\active 
\catcode `?\active 
\providecommand\HyperFirstAtBeginDocument{\AtBeginDocument}
\HyperFirstAtBeginDocument{\ifx\hyper@anchor\@undefined
\global\let\oldcontentsline\contentsline
\gdef\contentsline#1#2#3#4{\oldcontentsline{#1}{#2}{#3}}
\global\let\oldnewlabel\newlabel
\gdef\newlabel#1#2{\newlabelxx{#1}#2}
\gdef\newlabelxx#1#2#3#4#5#6{\oldnewlabel{#1}{{#2}{#3}}}
\AtEndDocument{\ifx\hyper@anchor\@undefined
\let\contentsline\oldcontentsline
\let\newlabel\oldnewlabel
\fi}
\fi}
\global\let\hyper@last\relax 
\gdef\HyperFirstAtBeginDocument#1{#1}
\providecommand\HyField@AuxAddToFields[1]{}
\providecommand\HyField@AuxAddToCoFields[2]{}
\bibstyle{biblatex}
\bibdata{main-blx,bib}
\citation{biblatex-control}
\abx@aux@sortscheme{nty}
\abx@aux@refcontext{nty/global/}
\citation{urgeo_key}
\abx@aux@cite{urgeo_key}
\abx@aux@segm{0}{0}{urgeo_key}
\providecommand\@newglossary[4]{}
\@newglossary{main}{glg}{gls}{glo}
\providecommand\@glsorder[1]{}
\providecommand\@istfilename[1]{}
\@istfilename{main.ist}
\@glsorder{word}
\@writefile{toc}{\boolfalse {citerequest}\boolfalse {citetracker}\boolfalse {pagetracker}\boolfalse {backtracker}\relax }
\@writefile{lof}{\boolfalse {citerequest}\boolfalse {citetracker}\boolfalse {pagetracker}\boolfalse {backtracker}\relax }
\@writefile{lot}{\boolfalse {citerequest}\boolfalse {citetracker}\boolfalse {pagetracker}\boolfalse {backtracker}\relax }
\select@language{french}
\@writefile{toc}{\defcounter {refsection}{0}\relax }\@writefile{toc}{\select@language{french}}
\@writefile{lof}{\defcounter {refsection}{0}\relax }\@writefile{lof}{\select@language{french}}
\@writefile{lot}{\defcounter {refsection}{0}\relax }\@writefile{lot}{\select@language{french}}
\@writefile{toc}{\defcounter {refsection}{0}\relax }\@writefile{toc}{\contentsline {section}{Remerciements}{1}{section*.2}}
\@writefile{toc}{\defcounter {refsection}{0}\relax }\@writefile{toc}{\contentsline {chapter}{Table des mati\`eres}{3}{section*.3}}
\@writefile{toc}{\defcounter {refsection}{0}\relax }\@writefile{toc}{\contentsline {chapter}{Table des figures}{5}{section*.4}}
\@writefile{toc}{\defcounter {refsection}{0}\relax }\@writefile{toc}{\contentsline {chapter}{Liste des tableaux}{8}{section*.5}}
\citation{preptit_key}
\abx@aux@cite{preptit_key}
\abx@aux@segm{0}{0}{preptit_key}
\citation{pdna_key}
\abx@aux@cite{pdna_key}
\abx@aux@segm{0}{0}{pdna_key}
\citation{pdna_key}
\abx@aux@segm{0}{0}{pdna_key}
\@writefile{lof}{\defcounter {refsection}{0}\relax }\@writefile{lof}{\addvspace {10pt}}
\@writefile{lot}{\defcounter {refsection}{0}\relax }\@writefile{lot}{\addvspace {10pt}}
\@writefile{toc}{\defcounter {refsection}{0}\relax }\@writefile{toc}{\contentsline {chapter}{\chapternumberline {1}Pr\IeC {\'e}sentation du projet et mise en contexte}{9}{chapter.1}}
\@writefile{toc}{\defcounter {refsection}{0}\relax }\@writefile{toc}{\contentsline {section}{\numberline {1.1}Introduction}{9}{section.1.1}}
\citation{preptit_key}
\abx@aux@segm{0}{0}{preptit_key}
\citation{preptit_key}
\abx@aux@segm{0}{0}{preptit_key}
\citation{Alea et risque sismique en Haiti}
\abx@aux@cite{Alea et risque sismique en Haiti}
\abx@aux@segm{0}{0}{Alea et risque sismique en Haiti}
\citation{p.2}
\abx@aux@cite{p.2}
\abx@aux@segm{0}{0}{p.2}
\@writefile{lof}{\defcounter {refsection}{0}\relax }\@writefile{lof}{\contentsline {figure}{\numberline {1.1}{\ignorespaces Historicit\IeC {\'e} sismique d'Ha\IeC {\"\i }ti.\relax }}{10}{figure.caption.6}}
\providecommand*\caption@xref[2]{\@setref\relax\@undefined{#1}}
\newlabel{hsis}{{\M@TitleReference {1.1}{}}{10}{}{figure.caption.6}{}}
\@writefile{toc}{\defcounter {refsection}{0}\relax }\@writefile{toc}{\contentsline {section}{\numberline {1.2}Probl\IeC {\'e}matique soulev\IeC {\'e}e}{11}{section.1.2}}
\@writefile{toc}{\defcounter {refsection}{0}\relax }\@writefile{toc}{\contentsline {subsection}{Contexte g\IeC {\'e}ologique}{11}{section*.7}}
\@writefile{lof}{\defcounter {refsection}{0}\relax }\@writefile{lof}{\contentsline {figure}{\numberline {1.2}{\ignorespaces Carte des principales failles r\IeC {\'e}gionales. \IeC {\textcopyright } B. Mercier de Lepinay G\IeC {\'e}oazur\relax }}{12}{figure.caption.8}}
\newlabel{Sismotechtonique}{{\M@TitleReference {1.2}{Carte des principales failles r\IeC {\'e}gionales. \IeC {\textcopyright } B. Mercier de Lepinay G\IeC {\'e}oazur\relax }}{12}{Carte des principales failles régionales. © B. Mercier de Lepinay Géoazur\relax }{figure.caption.8}{}}
\@writefile{toc}{\defcounter {refsection}{0}\relax }\@writefile{toc}{\contentsline {subsection}{Vuln\IeC {\'e}rabilit\IeC {\'e}s}{12}{section*.9}}
\@writefile{lof}{\defcounter {refsection}{0}\relax }\@writefile{lof}{\contentsline {figure}{\numberline {1.3}{\ignorespaces Source : Institut ha\IeC {\"\i }tien de statistique et d'informatique (IHSI)\relax }}{13}{figure.caption.10}}
\newlabel{population_dist}{{\M@TitleReference {1.3}{Source : Institut ha\IeC {\"\i }tien de statistique et d'informatique (IHSI)\relax }}{13}{Source : Institut haïtien de statistique et d'informatique (IHSI)\relax }{figure.caption.10}{}}
\@writefile{toc}{\defcounter {refsection}{0}\relax }\@writefile{toc}{\contentsline {section}{\numberline {1.3}Objectif g\IeC {\'e}n\IeC {\'e}ral}{14}{section.1.3}}
\@writefile{toc}{\defcounter {refsection}{0}\relax }\@writefile{toc}{\contentsline {section}{\numberline {1.4}Objectifs sp\IeC {\'e}cifiques}{14}{section.1.4}}
\@writefile{toc}{\defcounter {refsection}{0}\relax }\@writefile{toc}{\contentsline {section}{\numberline {1.5}Strat\IeC {\'e}gies}{15}{section.1.5}}
\@writefile{lof}{\defcounter {refsection}{0}\relax }\@writefile{lof}{\addvspace {10pt}}
\@writefile{lot}{\defcounter {refsection}{0}\relax }\@writefile{lot}{\addvspace {10pt}}
\@writefile{toc}{\defcounter {refsection}{0}\relax }\@writefile{toc}{\contentsline {chapter}{\chapternumberline {2}Les syst\IeC {\`e}mes de surveillance}{16}{chapter.2}}
\@writefile{toc}{\defcounter {refsection}{0}\relax }\@writefile{toc}{\contentsline {section}{\numberline {2.1}Introduction}{16}{section.2.1}}
\@writefile{toc}{\defcounter {refsection}{0}\relax }\@writefile{toc}{\contentsline {section}{\numberline {2.2}Historique des r\IeC {\'e}seaux de surveillance sismique}{16}{section.2.2}}
\citation{japan_sm_key}
\abx@aux@cite{japan_sm_key}
\abx@aux@segm{0}{0}{japan_sm_key}
\citation{japon_key}
\abx@aux@cite{japon_key}
\abx@aux@segm{0}{0}{japon_key}
\citation{japon_key}
\abx@aux@segm{0}{0}{japon_key}
\@writefile{toc}{\defcounter {refsection}{0}\relax }\@writefile{toc}{\contentsline {section}{\numberline {2.3}Le r\IeC {\'e}seau sismique japonais(Hi-net, F-net, K-NET/KiK-net)}{17}{section.2.3}}
\@writefile{toc}{\defcounter {refsection}{0}\relax }\@writefile{toc}{\contentsline {subsection}{Le r\IeC {\'e}seau KiK-net}{17}{section*.11}}
\citation{japon_key}
\abx@aux@segm{0}{0}{japon_key}
\citation{japon_key}
\abx@aux@segm{0}{0}{japon_key}
\citation{japon_key}
\abx@aux@segm{0}{0}{japon_key}
\@writefile{lof}{\defcounter {refsection}{0}\relax }\@writefile{lof}{\contentsline {figure}{\numberline {2.1}{\ignorespaces Distribution des stations du reseau KiK-net. Les couleurs repr\IeC {\'e}sentent la profondeur des puits de forage dans les station. Le carr\IeC {\'e} en jaune localise le centre DMC.\relax }}{18}{figure.caption.12}}
\newlabel{knet}{{\M@TitleReference {2.1}{Distribution des stations du reseau KiK-net. Les couleurs repr\IeC {\'e}sentent la profondeur des puits de forage dans les station. Le carr\IeC {\'e} en jaune localise le centre DMC.\relax }}{18}{Distribution des stations du reseau KiK-net. Les couleurs représentent la profondeur des puits de forage dans les station. Le carré en jaune localise le centre DMC.\relax }{figure.caption.12}{}}
\citation{japon_key}
\abx@aux@segm{0}{0}{japon_key}
\citation{eystein_key}
\abx@aux@cite{eystein_key}
\abx@aux@segm{0}{0}{eystein_key}
\@writefile{lot}{\defcounter {refsection}{0}\relax }\@writefile{lot}{\contentsline {table}{\numberline {2.1}{\ignorespaces  R\IeC {\'e}partition en profondeur des puits d'installation des stations du r\IeC {\'e}seau KiK-net. Source \cite [p.~66]{japon_key}\relax }}{19}{table.caption.13}}
\@writefile{toc}{\defcounter {refsection}{0}\relax }\@writefile{toc}{\contentsline {subsection}{Le reseau K-NET}{19}{section*.14}}
\@writefile{toc}{\defcounter {refsection}{0}\relax }\@writefile{toc}{\contentsline {subsection}{Collection et publication de donn\IeC {\'e}es}{19}{section*.16}}
\@writefile{toc}{\defcounter {refsection}{0}\relax }\@writefile{toc}{\contentsline {section}{\numberline {2.4}Le programme GEOFON}{19}{section.2.4}}
\@writefile{lof}{\defcounter {refsection}{0}\relax }\@writefile{lof}{\contentsline {figure}{\numberline {2.2}{\ignorespaces Distribution des stations du r\IeC {\'e}seau K-NET. Les cercles en bleu et rouge repr\IeC {\'e}sentent les stations qui contiennent les sismographes K-NET95 et K-NET02 respectivement. Le carre en jaune localise le centre DMC.\relax }}{20}{figure.caption.15}}
\newlabel{knet2}{{\M@TitleReference {2.2}{Distribution des stations du r\IeC {\'e}seau K-NET. Les cercles en bleu et rouge repr\IeC {\'e}sentent les stations qui contiennent les sismographes K-NET95 et K-NET02 respectivement. Le carre en jaune localise le centre DMC.\relax }}{20}{Distribution des stations du réseau K-NET. Les cercles en bleu et rouge représentent les stations qui contiennent les sismographes K-NET95 et K-NET02 respectivement. Le carre en jaune localise le centre DMC.\relax }{figure.caption.15}{}}
\@writefile{toc}{\defcounter {refsection}{0}\relax }\@writefile{toc}{\contentsline {subsection}{Le r\IeC {\'e}seau permanent}{20}{section*.17}}
\citation{eystein_key}
\abx@aux@segm{0}{0}{eystein_key}
\citation{eystein_key}
\abx@aux@segm{0}{0}{eystein_key}
\newlabel{geo1}{{\M@TitleReference {\caption@xref {geo1}{ on input line 78}}{Le r\IeC {\'e}seau permanent}}{21}{Le réseau permanent}{figure.caption.18}{}}
\citation{sep_key}
\abx@aux@cite{sep_key}
\abx@aux@segm{0}{0}{sep_key}
\@writefile{lof}{\defcounter {refsection}{0}\relax }\@writefile{lof}{\contentsline {figure}{\numberline {2.3}{\ignorespaces  Apercu de la repartition des stations du r\IeC {\'e}seau permanant GEOFON. Source \cite {eystein_key}\relax }}{22}{figure.caption.19}}
\newlabel{geo222}{{\M@TitleReference {2.3}{ Apercu de la repartition des stations du r\IeC {\'e}seau permanant GEOFON. Source \cite {eystein_key}\relax }}{22}{ Apercu de la repartition des stations du réseau permanant GEOFON. Source \cite {eystein_key}\relax }{figure.caption.19}{}}
\@writefile{toc}{\defcounter {refsection}{0}\relax }\@writefile{toc}{\contentsline {subsection}{Processeur de communication sismologique(SeisComp)}{22}{section*.20}}
\citation{eystein_key}
\abx@aux@segm{0}{0}{eystein_key}
\citation{eystein_key}
\abx@aux@segm{0}{0}{eystein_key}
\citation{eystein_key}
\abx@aux@segm{0}{0}{eystein_key}
\@writefile{lof}{\defcounter {refsection}{0}\relax }\@writefile{lof}{\contentsline {figure}{\numberline {2.4}{\ignorespaces Le processeur de communication sismologique GEOFON (SeisComP). Source \cite [p.~157]{eystein_key}.\relax }}{23}{figure.caption.21}}
\newlabel{scmp}{{\M@TitleReference {2.4}{Le processeur de communication sismologique GEOFON (SeisComP). Source \cite [p.~157]{eystein_key}.\relax }}{23}{Le processeur de communication sismologique GEOFON (SeisComP). Source \cite [p.~157]{eystein_key}.\relax }{figure.caption.21}{}}
\@writefile{toc}{\defcounter {refsection}{0}\relax }\@writefile{toc}{\contentsline {subsection}{Extension du r\IeC {\'e}seau: Le r\IeC {\'e}seau virtuel GEVN}{23}{section*.22}}
\citation{bme_key}
\abx@aux@cite{bme_key}
\abx@aux@segm{0}{0}{bme_key}
\@writefile{toc}{\defcounter {refsection}{0}\relax }\@writefile{toc}{\contentsline {subsection}{Distribution de donn\IeC {\'e}es}{24}{section*.23}}
\@writefile{toc}{\defcounter {refsection}{0}\relax }\@writefile{toc}{\contentsline {section}{\numberline {2.5}Le r\IeC {\'e}seau sismique mise au point en Ha\IeC {\"\i }ti}{24}{section.2.5}}
\@writefile{toc}{\defcounter {refsection}{0}\relax }\@writefile{toc}{\contentsline {subsection}{Le r\IeC {\'e}seau de sismologique d'Haiti}{24}{section*.24}}
\@writefile{toc}{\defcounter {refsection}{0}\relax }\@writefile{toc}{\contentsline {subsection}{A. Le r\IeC {\'e}seau de sismom\IeC {\`e}tres}{24}{section*.25}}
\citation{bme_key}
\abx@aux@segm{0}{0}{bme_key}
\citation{bme_key}
\abx@aux@segm{0}{0}{bme_key}
\@writefile{toc}{\defcounter {refsection}{0}\relax }\@writefile{toc}{\contentsline {subsection}{ B. Le r\IeC {\'e}seau d\IeC {\textquoteright }acc\IeC {\'e}l\IeC {\'e}rom\IeC {\`e}tres }{25}{section*.26}}
\@writefile{toc}{\defcounter {refsection}{0}\relax }\@writefile{toc}{\contentsline {subsection}{C. Le r\IeC {\'e}seau de GPS}{25}{section*.27}}
\citation{bme_key}
\abx@aux@segm{0}{0}{bme_key}
\@writefile{lof}{\defcounter {refsection}{0}\relax }\@writefile{lof}{\contentsline {figure}{\numberline {2.5}{\ignorespaces R\IeC {\'e}partition des stations sismiques en Ha\IeC {\"\i }ti. Stations nanometrics (jaune), sismom\IeC {\`e}tres Guralp (noir). Source \cite {bme_key}.\relax }}{26}{figure.caption.28}}
\newlabel{hstation}{{\M@TitleReference {2.5}{R\IeC {\'e}partition des stations sismiques en Ha\IeC {\"\i }ti. Stations nanometrics (jaune), sismom\IeC {\`e}tres Guralp (noir). Source \cite {bme_key}.\relax }}{26}{Répartition des stations sismiques en Haïti. Stations nanometrics (jaune), sismomètres Guralp (noir). Source \cite {bme_key}.\relax }{figure.caption.28}{}}
\@writefile{toc}{\defcounter {refsection}{0}\relax }\@writefile{toc}{\contentsline {subsection}{Le Centre National de Donn\IeC {\'e}es}{26}{section*.29}}
\@writefile{toc}{\defcounter {refsection}{0}\relax }\@writefile{toc}{\contentsline {subsection}{La gestion des flux de donn\IeC {\'e}es}{26}{section*.30}}
\@writefile{toc}{\defcounter {refsection}{0}\relax }\@writefile{toc}{\contentsline {section}{\numberline {2.6}Synth\IeC {\`e}se et Perspectives }{27}{section.2.6}}
\@writefile{lof}{\defcounter {refsection}{0}\relax }\@writefile{lof}{\addvspace {10pt}}
\@writefile{lot}{\defcounter {refsection}{0}\relax }\@writefile{lot}{\addvspace {10pt}}
\@writefile{toc}{\defcounter {refsection}{0}\relax }\@writefile{toc}{\contentsline {chapter}{\chapternumberline {3}\IeC {\'E}tude d'un syst\IeC {\`e}me de surveillance sismique}{29}{chapter.3}}
\@writefile{toc}{\defcounter {refsection}{0}\relax }\@writefile{toc}{\contentsline {section}{\numberline {3.1}Introduction}{29}{section.3.1}}
\@writefile{toc}{\defcounter {refsection}{0}\relax }\@writefile{toc}{\contentsline {section}{\numberline {3.2}Les stations sismiques}{30}{section.3.2}}
\@writefile{lof}{\defcounter {refsection}{0}\relax }\@writefile{lof}{\contentsline {figure}{\numberline {3.1}{\ignorespaces Les diff\IeC {\'e}rents \IeC {\'e}l\IeC {\'e}ments d\IeC {\textquoteright }une station de surveillance sismique: 1- Le sismom\IeC {\`e}tre, 2- Le num\IeC {\'e}riseur, 3- L'ordinateur, 4- GPS, 5- Modem (\IeC {\'E}quipement r\IeC {\'e}seau)\relax }}{31}{figure.caption.31}}
\@writefile{toc}{\defcounter {refsection}{0}\relax }\@writefile{toc}{\contentsline {section}{\numberline {3.3}Les types de stations sismiques}{31}{section.3.3}}
\@writefile{toc}{\defcounter {refsection}{0}\relax }\@writefile{toc}{\contentsline {section}{\numberline {3.4}Acquisition de donn\IeC {\'e}es}{32}{section.3.4}}
\@writefile{toc}{\defcounter {refsection}{0}\relax }\@writefile{toc}{\contentsline {subsection}{Syst\IeC {\`e}mes analogiques}{32}{section*.32}}
\citation{jens2_key}
\abx@aux@cite{jens2_key}
\abx@aux@segm{0}{0}{jens2_key}
\citation{jens2_key}
\abx@aux@segm{0}{0}{jens2_key}
\@writefile{toc}{\defcounter {refsection}{0}\relax }\@writefile{toc}{\contentsline {subsection}{Le syst\IeC {\`e}me mixte (analogique/num\IeC {\'e}rique)}{33}{section*.33}}
\@writefile{toc}{\defcounter {refsection}{0}\relax }\@writefile{toc}{\contentsline {subsection}{Le syst\IeC {\`e}me num\IeC {\'e}rique}{33}{section*.34}}
\@writefile{toc}{\defcounter {refsection}{0}\relax }\@writefile{toc}{\contentsline {subsection}{Quelques capteur sismiques disponibles sur le march\IeC {\'e}}{33}{section*.35}}
\@writefile{lot}{\defcounter {refsection}{0}\relax }\@writefile{lot}{\contentsline {table}{\numberline {3.1}{\ignorespaces Quelques capteurs sismiques disponible sur le marche. Source \cite [p.~94]{jens2_key}\relax }}{35}{table.caption.37}}
\@writefile{toc}{\defcounter {refsection}{0}\relax }\@writefile{toc}{\contentsline {section}{\numberline {3.5}Transmission de donn\IeC {\'e}es en sismologie}{35}{section.3.5}}
\@writefile{toc}{\defcounter {refsection}{0}\relax }\@writefile{toc}{\contentsline {section}{\numberline {3.6}Stockage des flux de donn\IeC {\'e}es}{36}{section.3.6}}
\@writefile{toc}{\defcounter {refsection}{0}\relax }\@writefile{toc}{\contentsline {subsection}{Localisation des s\IeC {\'e}ismes}{37}{section*.38}}
\@writefile{lof}{\defcounter {refsection}{0}\relax }\@writefile{lof}{\contentsline {figure}{\numberline {3.2}{\ignorespaces Localisation de s\IeC {\'e}isme, m\IeC {\'e}thode des cercles. A droite les cercles repr\IeC {\'e}sentent les champs d\IeC {\textquoteright }enregistrement des stations S1, S2, S3 respectivement.\relax }}{38}{figure.caption.39}}
\newlabel{localisation1}{{\M@TitleReference {3.2}{Localisation de s\IeC {\'e}isme, m\IeC {\'e}thode des cercles. A droite les cercles repr\IeC {\'e}sentent les champs d\IeC {\textquoteright }enregistrement des stations S1, S2, S3 respectivement.\relax }}{38}{Localisation de séisme, méthode des cercles. A droite les cercles représentent les champs d’enregistrement des stations S1, S2, S3 respectivement.\relax }{figure.caption.39}{}}
\@writefile{toc}{\defcounter {refsection}{0}\relax }\@writefile{toc}{\contentsline {subsection}{Classification des s\IeC {\'e}ismes}{39}{section*.40}}
\@writefile{lof}{\defcounter {refsection}{0}\relax }\@writefile{lof}{\contentsline {figure}{\numberline {3.3}{\ignorespaces Sismogramme d'un seisme local \relax }}{39}{figure.caption.41}}
\newlabel{wave1}{{\M@TitleReference {3.3}{Sismogramme d'un seisme local \relax }}{39}{Sismogramme d'un seisme local \relax }{figure.caption.41}{}}
\@writefile{lof}{\defcounter {refsection}{0}\relax }\@writefile{lof}{\contentsline {figure}{\numberline {3.4}{\ignorespaces Sismogramme d'un teleseisme\relax }}{39}{figure.caption.42}}
\newlabel{wave2}{{\M@TitleReference {3.4}{Sismogramme d'un teleseisme\relax }}{39}{Sismogramme d'un teleseisme\relax }{figure.caption.42}{}}
\@writefile{toc}{\defcounter {refsection}{0}\relax }\@writefile{toc}{\contentsline {section}{\numberline {3.7}Les algorithmes de d\IeC {\'e}tection d'\IeC {\'e}v\IeC {\'e}nement sismique}{39}{section.3.7}}
\@writefile{toc}{\defcounter {refsection}{0}\relax }\@writefile{toc}{\contentsline {subsection}{d\IeC {\'e}clencheur de niveau ou seuil de d\IeC {\'e}clenchement d'amplitude: }{40}{section*.43}}
\citation{jens_key}
\abx@aux@cite{jens_key}
\abx@aux@segm{0}{0}{jens_key}
\@writefile{toc}{\defcounter {refsection}{0}\relax }\@writefile{toc}{\contentsline {subsection}{Aglorithmes STA/LTA(Short Time Average/Long Time Average: }{41}{section*.44}}
\@writefile{toc}{\defcounter {refsection}{0}\relax }\@writefile{toc}{\contentsline {section}{\numberline {3.8}Syst\IeC {\`e}me de gestion de flux de donn\IeC {\'e}es}{41}{section.3.8}}
\citation{mem_key}
\abx@aux@cite{mem_key}
\abx@aux@segm{0}{0}{mem_key}
\@writefile{lof}{\defcounter {refsection}{0}\relax }\@writefile{lof}{\addvspace {10pt}}
\@writefile{lot}{\defcounter {refsection}{0}\relax }\@writefile{lot}{\addvspace {10pt}}
\@writefile{toc}{\defcounter {refsection}{0}\relax }\@writefile{toc}{\contentsline {chapter}{\chapternumberline {4}Analyse et traitement des signaux sismiques}{43}{chapter.4}}
\@writefile{toc}{\defcounter {refsection}{0}\relax }\@writefile{toc}{\contentsline {section}{\numberline {4.1}Introduction}{43}{section.4.1}}
\@writefile{toc}{\defcounter {refsection}{0}\relax }\@writefile{toc}{\contentsline {section}{\numberline {4.2}Traitement des flux de donn\IeC {\'e}es sismiques}{44}{section.4.2}}
\@writefile{toc}{\defcounter {refsection}{0}\relax }\@writefile{toc}{\contentsline {subsection}{Premi\IeC {\`e}re phase: Pr\IeC {\'e}-traitement}{44}{section*.45}}
\@writefile{toc}{\defcounter {refsection}{0}\relax }\@writefile{toc}{\contentsline {paragraph}{L\IeC {\textquoteright }\IeC {\'e}dition}{44}{section*.46}}
\@writefile{toc}{\defcounter {refsection}{0}\relax }\@writefile{toc}{\contentsline {paragraph}{Filtre en fr\IeC {\'e}quence et en vitesse apparente}{44}{section*.47}}
\@writefile{lof}{\defcounter {refsection}{0}\relax }\@writefile{lof}{\contentsline {figure}{\numberline {4.1}{\ignorespaces R\IeC {\'e}cup\IeC {\'e}ration des amplitudes\relax }}{44}{figure.caption.48}}
\@writefile{toc}{\defcounter {refsection}{0}\relax }\@writefile{toc}{\contentsline {subsection}{Deuxi\IeC {\`e}me phase : corrections diverses et analyse de vitesse}{45}{section*.49}}
\@writefile{toc}{\defcounter {refsection}{0}\relax }\@writefile{toc}{\contentsline {subsection}{Troisi\IeC {\`e}me phase : les sommations}{45}{section*.50}}
\@writefile{toc}{\defcounter {refsection}{0}\relax }\@writefile{toc}{\contentsline {subsection}{Quatri\IeC {\`e}me phase: migration et inversion}{45}{section*.51}}
\@writefile{toc}{\defcounter {refsection}{0}\relax }\@writefile{toc}{\contentsline {paragraph}{Migration}{45}{section*.52}}
\@writefile{toc}{\defcounter {refsection}{0}\relax }\@writefile{toc}{\contentsline {paragraph}{Inversion}{45}{section*.53}}
\citation{mem_key}
\abx@aux@segm{0}{0}{mem_key}
\@writefile{toc}{\defcounter {refsection}{0}\relax }\@writefile{toc}{\contentsline {subsection}{Cinqui\IeC {\`e}me phase : estimation des zones r\IeC {\'e}servoirs}{46}{section*.54}}
\@writefile{toc}{\defcounter {refsection}{0}\relax }\@writefile{toc}{\contentsline {subsection}{S\IeC {\'e}paration d'ondes}{46}{section*.55}}
\@writefile{toc}{\defcounter {refsection}{0}\relax }\@writefile{toc}{\contentsline {subsection}{Filtrage}{46}{section*.56}}
\citation{obs_key}
\abx@aux@cite{obs_key}
\abx@aux@segm{0}{0}{obs_key}
\@writefile{toc}{\defcounter {refsection}{0}\relax }\@writefile{toc}{\contentsline {section}{\numberline {4.3}Gestion d'\IeC {\'e}v\IeC {\'e}nements sismiques}{48}{section.4.3}}
\@writefile{toc}{\defcounter {refsection}{0}\relax }\@writefile{toc}{\contentsline {section}{\numberline {4.4}Classification des signaux par l'algorithme SVM}{49}{section.4.4}}
\@writefile{toc}{\defcounter {refsection}{0}\relax }\@writefile{toc}{\contentsline {subsection}{Presentation de l'agorithme}{49}{section*.57}}
\citation{zeste_key}
\abx@aux@cite{zeste_key}
\abx@aux@segm{0}{0}{zeste_key}
\@writefile{lof}{\defcounter {refsection}{0}\relax }\@writefile{lof}{\contentsline {figure}{\numberline {4.2}{\ignorespaces L'objet \`a classer est un triangle\relax }}{50}{figure.caption.58}}
\newlabel{svm_m}{{\M@TitleReference {4.2}{L'objet \`a classer est un triangle\relax }}{50}{L'objet \`a classer est un triangle\relax }{figure.caption.58}{}}
\citation{svm_class_key}
\abx@aux@cite{svm_class_key}
\abx@aux@segm{0}{0}{svm_class_key}
\@writefile{lof}{\defcounter {refsection}{0}\relax }\@writefile{lof}{\contentsline {figure}{\numberline {4.3}{\ignorespaces Resultat de l'algorithme SVM\relax }}{51}{figure.caption.59}}
\@writefile{toc}{\defcounter {refsection}{0}\relax }\@writefile{toc}{\contentsline {subsection}{La m\IeC {\'e}thode}{51}{section*.60}}
\@writefile{lof}{\defcounter {refsection}{0}\relax }\@writefile{lof}{\addvspace {10pt}}
\@writefile{lot}{\defcounter {refsection}{0}\relax }\@writefile{lot}{\addvspace {10pt}}
\@writefile{toc}{\defcounter {refsection}{0}\relax }\@writefile{toc}{\contentsline {chapter}{\chapternumberline {5}Analyse des param\IeC {\'e}tres de base du syst\IeC {\`e}me}{53}{chapter.5}}
\@writefile{toc}{\defcounter {refsection}{0}\relax }\@writefile{toc}{\contentsline {section}{\numberline {5.1}Les param\IeC {\`e}tres de base du syst\IeC {\`e}me propos\IeC {\'e}}{53}{section.5.1}}
\@writefile{lof}{\defcounter {refsection}{0}\relax }\@writefile{lof}{\contentsline {figure}{\numberline {5.1}{\ignorespaces R\IeC {\'e}partition des stations acc\IeC {\'e}l\IeC {\'e}rometrique. \relax }}{54}{figure.caption.61}}
\newlabel{lbp1}{{\M@TitleReference {5.1}{R\IeC {\'e}partition des stations acc\IeC {\'e}l\IeC {\'e}rometrique. \relax }}{54}{Répartition des stations accélérometrique. \relax }{figure.caption.61}{}}
\@writefile{toc}{\defcounter {refsection}{0}\relax }\@writefile{toc}{\contentsline {subsection}{Les besoins du syst\IeC {\`e}me}{55}{section*.62}}
\@writefile{toc}{\defcounter {refsection}{0}\relax }\@writefile{toc}{\contentsline {paragraph}{Recueillement de donn\IeC {\'e}es: }{55}{section*.63}}
\@writefile{toc}{\defcounter {refsection}{0}\relax }\@writefile{toc}{\contentsline {paragraph}{Transmission de donn\IeC {\'e}es: }{55}{section*.64}}
\@writefile{toc}{\defcounter {refsection}{0}\relax }\@writefile{toc}{\contentsline {paragraph}{Analyse de donn\IeC {\'e}es: }{55}{section*.65}}
\@writefile{toc}{\defcounter {refsection}{0}\relax }\@writefile{toc}{\contentsline {subsection}{Besoins non fonctionnels}{55}{section*.66}}
\@writefile{toc}{\defcounter {refsection}{0}\relax }\@writefile{toc}{\contentsline {section}{\numberline {5.2}Recommandations}{56}{section.5.2}}
\@writefile{toc}{\defcounter {refsection}{0}\relax }\@writefile{toc}{\contentsline {subsection}{Recommandations g\IeC {\'e}n\IeC {\'e}rales}{56}{section*.67}}
\@writefile{toc}{\defcounter {refsection}{0}\relax }\@writefile{toc}{\contentsline {subsection}{S\IeC {\'e}lection du vendeur }{56}{section*.68}}
\@writefile{toc}{\defcounter {refsection}{0}\relax }\@writefile{toc}{\contentsline {subsection}{Choix des capteurs et Recommandation }{57}{section*.69}}
\@writefile{toc}{\defcounter {refsection}{0}\relax }\@writefile{toc}{\contentsline {section}{\numberline {5.3}R\IeC {\'e}alit\IeC {\'e} Financi\IeC {\`e}re}{58}{section.5.3}}
\citation{calais_key}
\abx@aux@cite{calais_key}
\abx@aux@segm{0}{0}{calais_key}
\@writefile{lof}{\defcounter {refsection}{0}\relax }\@writefile{lof}{\contentsline {figure}{\numberline {5.2}{\ignorespaces R\IeC {\'e}partition des stations sur le r\IeC {\'e}seau. Cette configuration tient compte de la distribution spatiale des stations dans le r\IeC {\'e}seau, la s\IeC {\'e}lection des sites et la localisation g\IeC {\'e}ographique.\relax }}{59}{figure.caption.70}}
\@writefile{toc}{\defcounter {refsection}{0}\relax }\@writefile{toc}{\contentsline {subsection}{Exemple de cout d'installation d'un syst\IeC {\`e}me d'acquisition de sismologiques en Haiti}{59}{section*.71}}
\@writefile{toc}{\defcounter {refsection}{0}\relax }\@writefile{toc}{\contentsline {subsection}{A: Acquisition d\IeC {\textquoteright }\IeC {\'e}quipements}{60}{section*.72}}
\@writefile{lot}{\defcounter {refsection}{0}\relax }\@writefile{lot}{\contentsline {table}{\numberline {5.1}{\ignorespaces Acquisition d\IeC {\textquoteright }\IeC {\'e}quipements\relax }}{60}{table.5.1}}
\@writefile{toc}{\defcounter {refsection}{0}\relax }\@writefile{toc}{\contentsline {subsection}{B: Am\IeC {\'e}nagement de locaux; 13.000 USD }{61}{section*.73}}
\@writefile{lof}{\defcounter {refsection}{0}\relax }\@writefile{lof}{\addvspace {10pt}}
\@writefile{lot}{\defcounter {refsection}{0}\relax }\@writefile{lot}{\addvspace {10pt}}
\@writefile{toc}{\defcounter {refsection}{0}\relax }\@writefile{toc}{\contentsline {chapter}{\chapternumberline {6}Conception du syst\IeC {\`e}me}{62}{chapter.6}}
\@writefile{toc}{\defcounter {refsection}{0}\relax }\@writefile{toc}{\contentsline {section}{\numberline {6.1}Architecture r\IeC {\'e}seau}{62}{section.6.1}}
\@writefile{lof}{\defcounter {refsection}{0}\relax }\@writefile{lof}{\contentsline {figure}{\numberline {6.1}{\ignorespaces Architecture du r\IeC {\'e}seau\relax }}{63}{figure.caption.74}}
\newlabel{net12}{{\M@TitleReference {6.1}{Architecture du r\IeC {\'e}seau\relax }}{63}{Architecture du réseau\relax }{figure.caption.74}{}}
\@writefile{toc}{\defcounter {refsection}{0}\relax }\@writefile{toc}{\contentsline {section}{\numberline {6.2}Mod\IeC {\`e}le conceptuel de la communication}{63}{section.6.2}}
\@writefile{lof}{\defcounter {refsection}{0}\relax }\@writefile{lof}{\contentsline {figure}{\numberline {6.2}{\ignorespaces Mod\IeC {\`e}le de communication Syst\IeC {\`e}me\relax }}{64}{figure.caption.75}}
\newlabel{com}{{\M@TitleReference {6.2}{Mod\IeC {\`e}le de communication Syst\IeC {\`e}me\relax }}{64}{Modèle de communication Système\relax }{figure.caption.75}{}}
\@writefile{toc}{\defcounter {refsection}{0}\relax }\@writefile{toc}{\contentsline {section}{\numberline {6.3}Diagramme fonctionnel}{65}{section.6.3}}
\@writefile{lof}{\defcounter {refsection}{0}\relax }\@writefile{lof}{\contentsline {figure}{\numberline {6.3}{\ignorespaces Diagramme fonctionnel\relax }}{65}{figure.caption.76}}
\newlabel{net22}{{\M@TitleReference {6.3}{Diagramme fonctionnel\relax }}{65}{Diagramme fonctionnel\relax }{figure.caption.76}{}}
\@writefile{toc}{\defcounter {refsection}{0}\relax }\@writefile{toc}{\contentsline {section}{\numberline {6.4}M\IeC {\'e}thodologie}{65}{section.6.4}}
\@writefile{toc}{\defcounter {refsection}{0}\relax }\@writefile{toc}{\contentsline {subsection}{Cycle de d\IeC {\'e}veloppement logiciel: Mod\IeC {\`e}le en V}{66}{section*.77}}
\@writefile{lof}{\defcounter {refsection}{0}\relax }\@writefile{lof}{\contentsline {figure}{\numberline {6.4}{\ignorespaces Mod\IeC {\`e}le en V\relax }}{66}{figure.caption.78}}
\@writefile{toc}{\defcounter {refsection}{0}\relax }\@writefile{toc}{\contentsline {subsection}{M\IeC {\'e}thode de d\IeC {\'e}veloppement: M\IeC {\'e}thode RUP}{67}{section*.79}}
\@writefile{toc}{\defcounter {refsection}{0}\relax }\@writefile{toc}{\contentsline {subsection}{Langage de d\IeC {\'e}veloppement: UML}{67}{section*.80}}
\@writefile{toc}{\defcounter {refsection}{0}\relax }\@writefile{toc}{\contentsline {paragraph}{Les points forts d'UML:}{67}{section*.81}}
\@writefile{toc}{\defcounter {refsection}{0}\relax }\@writefile{toc}{\contentsline {paragraph}{Les points faibles d'UML:}{67}{section*.82}}
\@writefile{toc}{\defcounter {refsection}{0}\relax }\@writefile{toc}{\contentsline {section}{\numberline {6.5}Diagramme des cas d\IeC {\textquoteright }utilisation}{68}{section.6.5}}
\@writefile{toc}{\defcounter {refsection}{0}\relax }\@writefile{toc}{\contentsline {subsection}{Identification des acteurs du syst\IeC {\`e}me}{68}{section*.83}}
\@writefile{toc}{\defcounter {refsection}{0}\relax }\@writefile{toc}{\contentsline {subsection}{Identification des cas d'utilisation}{68}{section*.84}}
\@writefile{toc}{\defcounter {refsection}{0}\relax }\@writefile{toc}{\contentsline {subsection}{Diagramme des cas d'utilisation}{69}{section*.85}}
\@writefile{lof}{\defcounter {refsection}{0}\relax }\@writefile{lof}{\contentsline {figure}{\numberline {6.5}{\ignorespaces Diagrammme des cas d'utilisation: Analyste de donn\IeC {\'e}es\relax }}{70}{figure.caption.86}}
\@writefile{lof}{\defcounter {refsection}{0}\relax }\@writefile{lof}{\contentsline {figure}{\numberline {6.6}{\ignorespaces Diagrammme des cas d'utilisation: Syst\IeC {\`e}me de transmission\relax }}{70}{figure.caption.87}}
\@writefile{lof}{\defcounter {refsection}{0}\relax }\@writefile{lof}{\contentsline {figure}{\numberline {6.7}{\ignorespaces Diagrammme des cas d'utilisation: Administrateur\relax }}{71}{figure.caption.88}}
\@writefile{lof}{\defcounter {refsection}{0}\relax }\@writefile{lof}{\contentsline {figure}{\numberline {6.8}{\ignorespaces Diagrammme des cas d'utilisation: SismoBot\relax }}{71}{figure.caption.89}}
\@writefile{toc}{\defcounter {refsection}{0}\relax }\@writefile{toc}{\contentsline {section}{\numberline {6.6}Diagramme d'activit\IeC {\'e}}{72}{section.6.6}}
\@writefile{toc}{\defcounter {refsection}{0}\relax }\@writefile{toc}{\contentsline {subsection}{Composition d'un diagramme d'activit\IeC {\'e}}{72}{section*.90}}
\@writefile{lof}{\defcounter {refsection}{0}\relax }\@writefile{lof}{\contentsline {figure}{\numberline {6.9}{\ignorespaces Activit\IeC {\'e} et Transition \relax }}{72}{figure.caption.91}}
\@writefile{toc}{\defcounter {refsection}{0}\relax }\@writefile{toc}{\contentsline {subsection}{Les activit\IeC {\'e}s de notre syst\IeC {\`e}me}{72}{section*.94}}
\@writefile{lof}{\defcounter {refsection}{0}\relax }\@writefile{lof}{\contentsline {figure}{\numberline {6.10}{\ignorespaces  Condition de passage \relax }}{73}{figure.caption.92}}
\@writefile{lof}{\defcounter {refsection}{0}\relax }\@writefile{lof}{\contentsline {figure}{\numberline {6.11}{\ignorespaces  Barre de synchronisation \relax }}{73}{figure.caption.93}}
\@writefile{toc}{\defcounter {refsection}{0}\relax }\@writefile{toc}{\contentsline {subsection}{Le diagramme des activit\IeC {\'e}s}{74}{section*.95}}
\@writefile{toc}{\defcounter {refsection}{0}\relax }\@writefile{toc}{\contentsline {paragraph}{Diagramme d'Authentification:}{74}{section*.96}}
\@writefile{lof}{\defcounter {refsection}{0}\relax }\@writefile{lof}{\contentsline {figure}{\numberline {6.12}{\ignorespaces Activit\IeC {\'e}: authentification \relax }}{74}{figure.caption.97}}
\@writefile{toc}{\defcounter {refsection}{0}\relax }\@writefile{toc}{\contentsline {paragraph}{Diagramme de traitement de donn\IeC {\'e}es:}{74}{section*.98}}
\@writefile{lof}{\defcounter {refsection}{0}\relax }\@writefile{lof}{\contentsline {figure}{\numberline {6.13}{\ignorespaces Activit\IeC {\'e}: Traitement de donn\IeC {\'e}es \relax }}{75}{figure.caption.99}}
\@writefile{toc}{\defcounter {refsection}{0}\relax }\@writefile{toc}{\contentsline {paragraph}{Diagramme de gestion des stations:}{75}{section*.100}}
\@writefile{lof}{\defcounter {refsection}{0}\relax }\@writefile{lof}{\contentsline {figure}{\numberline {6.14}{\ignorespaces Activit\IeC {\'e}: Gestion des stations sismiques \relax }}{76}{figure.caption.101}}
\@writefile{toc}{\defcounter {refsection}{0}\relax }\@writefile{toc}{\contentsline {section}{\numberline {6.7}Diagramme de sequence}{76}{section.6.7}}
\@writefile{toc}{\defcounter {refsection}{0}\relax }\@writefile{toc}{\contentsline {subsection}{Composition d\IeC {\textquoteright }un diagramme de s\IeC {\'e}quences}{77}{section*.102}}
\@writefile{toc}{\defcounter {refsection}{0}\relax }\@writefile{toc}{\contentsline {subsection}{Diagramme de s\IeC {\'e}quence de notre syst\IeC {\`e}me}{77}{section*.103}}
\@writefile{toc}{\defcounter {refsection}{0}\relax }\@writefile{toc}{\contentsline {subsection}{Diagramme de s\IeC {\'e}quence de cr\IeC {\'e}ation d'utilisateur}{77}{section*.104}}
\@writefile{lof}{\defcounter {refsection}{0}\relax }\@writefile{lof}{\contentsline {figure}{\numberline {6.15}{\ignorespaces  Diagramme de s\IeC {\'e}quence de cr\IeC {\'e}ation d'utilisateur \relax }}{78}{figure.caption.105}}
\@writefile{toc}{\defcounter {refsection}{0}\relax }\@writefile{toc}{\contentsline {subsection}{Diagramme de sequence d'authentification}{78}{section*.106}}
\@writefile{lof}{\defcounter {refsection}{0}\relax }\@writefile{lof}{\contentsline {figure}{\numberline {6.16}{\ignorespaces  Diagramme de s\IeC {\'e}quence d'authentification \relax }}{78}{figure.caption.107}}
\@writefile{toc}{\defcounter {refsection}{0}\relax }\@writefile{toc}{\contentsline {subsection}{Diagramme de sequence de la gestion des stations}{79}{section*.108}}
\@writefile{lof}{\defcounter {refsection}{0}\relax }\@writefile{lof}{\contentsline {figure}{\numberline {6.17}{\ignorespaces  Diagramme de s\IeC {\'e}quence de la suppression d'une station sismique \relax }}{79}{figure.caption.109}}
\@writefile{toc}{\defcounter {refsection}{0}\relax }\@writefile{toc}{\contentsline {subsection}{Diagramme de sequence de gestion des flux de donn\IeC {\'e}es}{79}{section*.110}}
\citation{soutou_key}
\abx@aux@cite{soutou_key}
\abx@aux@segm{0}{0}{soutou_key}
\@writefile{lof}{\defcounter {refsection}{0}\relax }\@writefile{lof}{\contentsline {figure}{\numberline {6.18}{\ignorespaces  Diagramme de sequence de gestion des flux de donn\IeC {\'e}es \relax }}{80}{figure.caption.111}}
\@writefile{toc}{\defcounter {refsection}{0}\relax }\@writefile{toc}{\contentsline {section}{\numberline {6.8}Mod\IeC {\'e}lisation conceptuelle des donn\IeC {\'e}es}{80}{section.6.8}}
\@writefile{toc}{\defcounter {refsection}{0}\relax }\@writefile{toc}{\contentsline {subsection}{Diagramme de classe}{81}{section*.112}}
\@writefile{toc}{\defcounter {refsection}{0}\relax }\@writefile{toc}{\contentsline {subsubsection}{Composition d'un diagramme de classe}{81}{section*.113}}
\@writefile{toc}{\defcounter {refsection}{0}\relax }\@writefile{toc}{\contentsline {subsection}{Diagramme de classe du syst\IeC {\`e}me}{81}{section*.114}}
\@writefile{lof}{\defcounter {refsection}{0}\relax }\@writefile{lof}{\contentsline {figure}{\numberline {6.19}{\ignorespaces  Diagramme de classe du syst\IeC {\`e}me \relax }}{82}{figure.caption.115}}
\@writefile{toc}{\defcounter {refsection}{0}\relax }\@writefile{toc}{\contentsline {subsection}{ Sch\IeC {\'e}ma Relationnel }{82}{section*.116}}
\@writefile{lof}{\defcounter {refsection}{0}\relax }\@writefile{lof}{\contentsline {figure}{\numberline {6.20}{\ignorespaces  Schema relationnel \relax }}{84}{figure.caption.117}}
\@writefile{toc}{\defcounter {refsection}{0}\relax }\@writefile{toc}{\contentsline {subsection}{Description des tables }{84}{section*.118}}
\@writefile{lot}{\defcounter {refsection}{0}\relax }\@writefile{lot}{\contentsline {table}{\numberline {6.1}{\ignorespaces \textbf  {Network: } Ce tableau repr\IeC {\'e}sentant le r\IeC {\'e}seau des stations sismique\relax }}{84}{table.6.1}}
\@writefile{lot}{\defcounter {refsection}{0}\relax }\@writefile{lot}{\contentsline {table}{\numberline {6.2}{\ignorespaces \textbf  {StationType: }Les types de stations (Large-Bande, Acc\IeC {\'e}l\IeC {\'e}rometre, .. \relax }}{85}{table.6.2}}
\@writefile{lot}{\defcounter {refsection}{0}\relax }\@writefile{lot}{\contentsline {table}{\numberline {6.3}{\ignorespaces \textbf  {Station: }Les types de stations sismiques \relax }}{85}{table.6.3}}
\@writefile{lot}{\defcounter {refsection}{0}\relax }\@writefile{lot}{\contentsline {table}{\numberline {6.4}{\ignorespaces \textbf  {Wave: } Les ondes sismiques.\relax }}{85}{table.6.4}}
\@writefile{lot}{\defcounter {refsection}{0}\relax }\@writefile{lot}{\contentsline {table}{\numberline {6.5}{\ignorespaces \textbf  {Pick:} Pick sur les ondes S, P\relax }}{86}{table.6.5}}
\@writefile{lot}{\defcounter {refsection}{0}\relax }\@writefile{lot}{\contentsline {table}{\numberline {6.6}{\ignorespaces \textbf  {Sensor:} Le sismometre\relax }}{86}{table.6.6}}
\@writefile{lot}{\defcounter {refsection}{0}\relax }\@writefile{lot}{\contentsline {table}{\numberline {6.7}{\ignorespaces \textbf  {Event:} Les \IeC {\'e}v\IeC {\`e}nements sismiques \relax }}{86}{table.6.7}}
\@writefile{lot}{\defcounter {refsection}{0}\relax }\@writefile{lot}{\contentsline {table}{\numberline {6.8}{\ignorespaces \textbf  {User:} Les utilisateurs du syst\IeC {\`e}me \relax }}{87}{table.6.8}}
\@writefile{lof}{\defcounter {refsection}{0}\relax }\@writefile{lof}{\addvspace {10pt}}
\@writefile{lot}{\defcounter {refsection}{0}\relax }\@writefile{lot}{\addvspace {10pt}}
\@writefile{toc}{\defcounter {refsection}{0}\relax }\@writefile{toc}{\contentsline {chapter}{\chapternumberline {7}Impl\IeC {\'e}mentation du syst\IeC {\`e}me }{88}{chapter.7}}
\@writefile{toc}{\defcounter {refsection}{0}\relax }\@writefile{toc}{\contentsline {section}{\numberline {7.1}Choix du capteur}{88}{section.7.1}}
\@writefile{toc}{\defcounter {refsection}{0}\relax }\@writefile{toc}{\contentsline {subsection}{Nanometrics Trillium 120PH}{88}{section*.126}}
\@writefile{toc}{\defcounter {refsection}{0}\relax }\@writefile{toc}{\contentsline {subsection}{Performances du Trillium 120PH}{89}{section*.127}}
\@writefile{lof}{\defcounter {refsection}{0}\relax }\@writefile{lof}{\contentsline {figure}{\numberline {7.1}{\ignorespaces Graphique comparatif de la PSD du Trillium 120 Posthole Installe a quai chez Nonometrics Inc.\relax }}{89}{figure.caption.128}}
\newlabel{dspec}{{\M@TitleReference {7.1}{Graphique comparatif de la PSD du Trillium 120 Posthole Installe a quai chez Nonometrics Inc.\relax }}{89}{Graphique comparatif de la PSD du Trillium 120 Posthole Installe a quai chez Nonometrics Inc.\relax }{figure.caption.128}{}}
\@writefile{toc}{\defcounter {refsection}{0}\relax }\@writefile{toc}{\contentsline {subsection}{Variation du bruit en fonction de la profondeur}{89}{section*.129}}
\@writefile{lof}{\defcounter {refsection}{0}\relax }\@writefile{lof}{\contentsline {figure}{\numberline {7.2}{\ignorespaces Analyse spectrale de l\IeC {\textquoteright }installation r\IeC {\'e}alis\IeC {\'e}e chez Nanometrics Inc.\relax }}{90}{figure.caption.130}}
\newlabel{psd12}{{\M@TitleReference {7.2}{Analyse spectrale de l\IeC {\textquoteright }installation r\IeC {\'e}alis\IeC {\'e}e chez Nanometrics Inc.\relax }}{90}{Analyse spectrale de l’installation réalisée chez Nanometrics Inc.\relax }{figure.caption.130}{}}
\@writefile{lof}{\defcounter {refsection}{0}\relax }\@writefile{lof}{\contentsline {figure}{\numberline {7.3}{\ignorespaces Graphique de la PSD basse fr\IeC {\'e}quence de quatre installations de sismom\IeC {\`e}tre chez Nanometrics Inc.\relax }}{91}{figure.caption.131}}
\newlabel{nanometric}{{\M@TitleReference {7.3}{Graphique de la PSD basse fr\IeC {\'e}quence de quatre installations de sismom\IeC {\`e}tre chez Nanometrics Inc.\relax }}{91}{Graphique de la PSD basse fréquence de quatre installations de sismomètre chez Nanometrics Inc.\relax }{figure.caption.131}{}}
\@writefile{lof}{\defcounter {refsection}{0}\relax }\@writefile{lof}{\contentsline {figure}{\numberline {7.4}{\ignorespaces Le sismom\IeC {\`e}tre Nanometrics Trillium 120PH\relax }}{91}{figure.caption.132}}
\@writefile{lot}{\defcounter {refsection}{0}\relax }\@writefile{lot}{\contentsline {table}{\numberline {7.1}{\ignorespaces Caracteristique du sismom\IeC {\`e}tre Nanometrics Trillium 120PH\relax }}{91}{figure.caption.132}}
\@writefile{lof}{\defcounter {refsection}{0}\relax }\@writefile{lof}{\contentsline {figure}{\numberline {7.5}{\ignorespaces  Le fabriquant Nanometrics \relax }}{91}{figure.caption.132}}
\@writefile{lof}{\defcounter {refsection}{0}\relax }\@writefile{lof}{\contentsline {figure}{\numberline {7.6}{\ignorespaces Caracteristiques g\IeC {\'e}n\IeC {\'e}raux du capteur Nanometrics Trillium 120PH\relax }}{92}{figure.caption.133}}
\newlabel{nanometric1}{{\M@TitleReference {7.6}{Caracteristiques g\IeC {\'e}n\IeC {\'e}raux du capteur Nanometrics Trillium 120PH\relax }}{92}{Caracteristiques généraux du capteur Nanometrics Trillium 120PH\relax }{figure.caption.133}{}}
\@writefile{toc}{\defcounter {refsection}{0}\relax }\@writefile{toc}{\contentsline {subsection}{CMG-3T (Guralp)}{92}{section*.134}}
\@writefile{lof}{\defcounter {refsection}{0}\relax }\@writefile{lof}{\contentsline {figure}{\numberline {7.7}{\ignorespaces Graphique de la PSD d'un sismom\IeC {\`e}tre Guralp CMG-3T.\relax }}{93}{figure.caption.135}}
\newlabel{bcmg}{{\M@TitleReference {7.7}{Graphique de la PSD d'un sismom\IeC {\`e}tre Guralp CMG-3T.\relax }}{93}{Graphique de la PSD d'un sismomètre Guralp CMG-3T.\relax }{figure.caption.135}{}}
\citation{guralp_key}
\abx@aux@cite{guralp_key}
\abx@aux@segm{0}{0}{guralp_key}
\@writefile{lof}{\defcounter {refsection}{0}\relax }\@writefile{lof}{\contentsline {figure}{\numberline {7.8}{\ignorespaces Caracteristiques g\IeC {\'e}n\IeC {\'e}raux du sismom\IeC {\`e}tres CMG-3T\relax }}{94}{figure.caption.136}}
\newlabel{guralp}{{\M@TitleReference {7.8}{Caracteristiques g\IeC {\'e}n\IeC {\'e}raux du sismom\IeC {\`e}tres CMG-3T\relax }}{94}{Caracteristiques généraux du sismomètres CMG-3T\relax }{figure.caption.136}{}}
\@writefile{toc}{\defcounter {refsection}{0}\relax }\@writefile{toc}{\contentsline {section}{\numberline {7.2}Installation du CMG-3T}{95}{section.7.2}}
\@writefile{lof}{\defcounter {refsection}{0}\relax }\@writefile{lof}{\contentsline {figure}{\numberline {7.9}{\ignorespaces Guralp CMG-3T\relax }}{95}{figure.caption.137}}
\newlabel{guralp}{{\M@TitleReference {7.9}{Guralp CMG-3T\relax }}{95}{Guralp CMG-3T\relax }{figure.caption.137}{}}
\newlabel{ fig7}{{\M@TitleReference {\caption@xref { fig7}{ on input line 113}}{Installation du CMG-3T}}{96}{Installation du CMG-3T}{figure.caption.138}{}}
\@writefile{lof}{\defcounter {refsection}{0}\relax }\@writefile{lof}{\contentsline {figure}{\numberline {7.10}{\ignorespaces Une feuille d'\IeC {\'e}talonnage et d'installation\relax }}{96}{figure.caption.138}}
\@writefile{lof}{\defcounter {refsection}{0}\relax }\@writefile{lof}{\contentsline {figure}{\numberline {7.11}{\ignorespaces Le cable qui relie le sismometre et le numeriseur\relax }}{96}{figure.caption.138}}
\@writefile{lof}{\defcounter {refsection}{0}\relax }\@writefile{lof}{\contentsline {figure}{\numberline {7.12}{\ignorespaces \relax }}{96}{figure.caption.138}}
\newlabel{ fig7}{{\M@TitleReference {\caption@xref { fig7}{ on input line 132}}{Installation du CMG-3T}}{97}{Installation du CMG-3T}{figure.caption.139}{}}
\@writefile{lof}{\defcounter {refsection}{0}\relax }\@writefile{lof}{\contentsline {figure}{\numberline {7.13}{\ignorespaces Deux broches d'orientation, un laiton et un acier.\relax }}{97}{figure.caption.139}}
\@writefile{lof}{\defcounter {refsection}{0}\relax }\@writefile{lof}{\contentsline {figure}{\numberline {7.14}{\ignorespaces Une prise multipolaire pour entr\IeC {\'e}e et sortie\relax }}{97}{figure.caption.139}}
\@writefile{lof}{\defcounter {refsection}{0}\relax }\@writefile{lof}{\contentsline {figure}{\numberline {7.15}{\ignorespaces Trois pieds ajustables \relax }}{97}{figure.caption.139}}
\@writefile{lof}{\defcounter {refsection}{0}\relax }\@writefile{lof}{\contentsline {figure}{\numberline {7.16}{\ignorespaces Un niveau \IeC {\`a} bulle\relax }}{97}{figure.caption.139}}
\@writefile{lof}{\defcounter {refsection}{0}\relax }\@writefile{lof}{\contentsline {figure}{\numberline {7.17}{\ignorespaces  Une poign\IeC {\'e}e avec indication nord \relax }}{98}{figure.caption.140}}
\@writefile{toc}{\defcounter {refsection}{0}\relax }\@writefile{toc}{\contentsline {subsection}{Notes d'instruction }{99}{section*.141}}
\@writefile{toc}{\defcounter {refsection}{0}\relax }\@writefile{toc}{\contentsline {subsection}{Alimentation \IeC {\'E}lectrique }{99}{section*.142}}
\@writefile{lof}{\defcounter {refsection}{0}\relax }\@writefile{lof}{\contentsline {figure}{\numberline {7.18}{\ignorespaces Le CMG-3T fourni avec une bo\IeC {\^\i }te de d\IeC {\'e}rivation optionnelle. Les c\IeC {\^a}bles de capteurs qui terminent les extr\IeC {\'e}mit\IeC {\'e}s nues, sont disponibles pour faciliter la connexion \IeC {\`a} des num\IeC {\'e}riseurs tiers.\relax }}{100}{figure.caption.143}}
\newlabel{guralp}{{\M@TitleReference {7.18}{Le CMG-3T fourni avec une bo\IeC {\^\i }te de d\IeC {\'e}rivation optionnelle. Les c\IeC {\^a}bles de capteurs qui terminent les extr\IeC {\'e}mit\IeC {\'e}s nues, sont disponibles pour faciliter la connexion \IeC {\`a} des num\IeC {\'e}riseurs tiers.\relax }}{100}{Le CMG-3T fourni avec une boîte de dérivation optionnelle. Les câbles de capteurs qui terminent les extrémités nues, sont disponibles pour faciliter la connexion à des numériseurs tiers.\relax }{figure.caption.143}{}}
\@writefile{toc}{\defcounter {refsection}{0}\relax }\@writefile{toc}{\contentsline {paragraph}{ Signal de sortie }{100}{section*.144}}
\@writefile{toc}{\defcounter {refsection}{0}\relax }\@writefile{toc}{\contentsline {subsection}{Connexion}{101}{section*.145}}
\@writefile{toc}{\defcounter {refsection}{0}\relax }\@writefile{toc}{\contentsline {subsection}{Utilisation d'un num\IeC {\'e}riseur}{101}{section*.146}}
\@writefile{lof}{\defcounter {refsection}{0}\relax }\@writefile{lof}{\contentsline {figure}{\numberline {7.19}{\ignorespaces Connexion du sismometre avec les autres \IeC {\'e}quipements \relax }}{102}{figure.caption.147}}
\newlabel{c1}{{\M@TitleReference {7.19}{Connexion du sismometre avec les autres \IeC {\'e}quipements \relax }}{102}{Connexion du sismometre avec les autres équipements \relax }{figure.caption.147}{}}
\@writefile{toc}{\defcounter {refsection}{0}\relax }\@writefile{toc}{\contentsline {subsection}{Installation}{102}{section*.148}}
\@writefile{toc}{\defcounter {refsection}{0}\relax }\@writefile{toc}{\contentsline {subsection}{Calibration}{103}{section*.149}}
\@writefile{toc}{\defcounter {refsection}{0}\relax }\@writefile{toc}{\contentsline {section}{\numberline {7.3}Installation et configuration du num\IeC {\'e}riseur}{105}{section.7.3}}
\@writefile{toc}{\defcounter {refsection}{0}\relax }\@writefile{toc}{\contentsline {subsection}{Aper\IeC {\c c}u}{105}{section*.150}}
\@writefile{toc}{\defcounter {refsection}{0}\relax }\@writefile{toc}{\contentsline {subsection}{Alimentation \IeC {\'E}lectrique}{105}{section*.151}}
\@writefile{toc}{\defcounter {refsection}{0}\relax }\@writefile{toc}{\contentsline {subsection}{Connexion \IeC {\`a} un seul ordinateur}{106}{section*.152}}
\@writefile{toc}{\defcounter {refsection}{0}\relax }\@writefile{toc}{\contentsline {paragraph}{Connexion sur un lien s\IeC {\'e}rie: }{106}{section*.153}}
\@writefile{toc}{\defcounter {refsection}{0}\relax }\@writefile{toc}{\contentsline {paragraph}{Pour communiquer sur un lien s\IeC {\'e}rie:}{106}{section*.154}}
\@writefile{toc}{\defcounter {refsection}{0}\relax }\@writefile{toc}{\contentsline {paragraph}{Connexion via Ethernet}{106}{section*.155}}
\@writefile{toc}{\defcounter {refsection}{0}\relax }\@writefile{toc}{\contentsline {paragraph}{Utilisation d'un modem interne: }{107}{section*.156}}
\@writefile{toc}{\defcounter {refsection}{0}\relax }\@writefile{toc}{\contentsline {paragraph}{Connexion sur USB:}{107}{section*.157}}
\@writefile{toc}{\defcounter {refsection}{0}\relax }\@writefile{toc}{\contentsline {section}{\numberline {7.4}Syst\IeC {\`e}me d'alimentation \IeC {\'e}lectrique}{107}{section.7.4}}
\@writefile{lof}{\defcounter {refsection}{0}\relax }\@writefile{lof}{\contentsline {figure}{\numberline {7.20}{\ignorespaces Syst\IeC {\`e}me d'alimentation \IeC {\'e}lectrique\relax }}{108}{figure.caption.158}}
\newlabel{elect}{{\M@TitleReference {7.20}{Syst\IeC {\`e}me d'alimentation \IeC {\'e}lectrique\relax }}{108}{Système d'alimentation électrique\relax }{figure.caption.158}{}}
\@writefile{toc}{\defcounter {refsection}{0}\relax }\@writefile{toc}{\contentsline {section}{\numberline {7.5}Configuration des stations}{108}{section.7.5}}
\@writefile{lof}{\defcounter {refsection}{0}\relax }\@writefile{lof}{\contentsline {figure}{\numberline {7.21}{\ignorespaces Les diff\IeC {\'e}rents \IeC {\'e}l\IeC {\'e}ments d\IeC {\textquoteright }une station de surveillance sismique.\relax }}{109}{figure.caption.159}}
\newlabel{station_cfg}{{\M@TitleReference {7.21}{Les diff\IeC {\'e}rents \IeC {\'e}l\IeC {\'e}ments d\IeC {\textquoteright }une station de surveillance sismique.\relax }}{109}{Les différents éléments d’une station de surveillance sismique.\relax }{figure.caption.159}{}}
\@writefile{toc}{\defcounter {refsection}{0}\relax }\@writefile{toc}{\contentsline {section}{\numberline {7.6}Implementation du systeme de gestion de flux}{109}{section.7.6}}
\citation{bjarne_key}
\abx@aux@cite{bjarne_key}
\abx@aux@segm{0}{0}{bjarne_key}
\citation{nstl_key}
\abx@aux@cite{nstl_key}
\abx@aux@segm{0}{0}{nstl_key}
\citation{scott14_key}
\abx@aux@cite{scott14_key}
\abx@aux@segm{0}{0}{scott14_key}
\citation{qt4_key}
\abx@aux@cite{qt4_key}
\abx@aux@segm{0}{0}{qt4_key}
\citation{irisws_key}
\abx@aux@cite{irisws_key}
\abx@aux@segm{0}{0}{irisws_key}
\citation{slink_key}
\abx@aux@cite{slink_key}
\abx@aux@segm{0}{0}{slink_key}
\citation{ring_key}
\abx@aux@cite{ring_key}
\abx@aux@segm{0}{0}{ring_key}
\citation{svmlight_key}
\abx@aux@cite{svmlight_key}
\abx@aux@segm{0}{0}{svmlight_key}
\citation{filterp_key}
\abx@aux@cite{filterp_key}
\abx@aux@segm{0}{0}{filterp_key}
\@writefile{lot}{\defcounter {refsection}{0}\relax }\@writefile{lot}{\contentsline {table}{\numberline {7.2}{\ignorespaces Materiels de developpement\relax }}{110}{table.caption.161}}
\@writefile{toc}{\defcounter {refsection}{0}\relax }\@writefile{toc}{\contentsline {section}{\numberline {7.7}Environnement de r\IeC {\'e}alisation }{110}{section.7.7}}
\@writefile{toc}{\defcounter {refsection}{0}\relax }\@writefile{toc}{\contentsline {subsection}{Mat\IeC {\'e}riel de base}{110}{section*.160}}
\@writefile{toc}{\defcounter {refsection}{0}\relax }\@writefile{toc}{\contentsline {subsection}{Choix des langage de programmation et biblioth\IeC {\`e}ques}{110}{section*.162}}
\@writefile{toc}{\defcounter {refsection}{0}\relax }\@writefile{toc}{\contentsline {paragraph}{Framework}{110}{section*.163}}
\citation{sgbd_key}
\abx@aux@cite{sgbd_key}
\abx@aux@segm{0}{0}{sgbd_key}
\@writefile{toc}{\defcounter {refsection}{0}\relax }\@writefile{toc}{\contentsline {subsection}{Choix du SGBD}{111}{section*.164}}
\@writefile{toc}{\defcounter {refsection}{0}\relax }\@writefile{toc}{\contentsline {subsection}{Environnement de developpement}{113}{section*.165}}
\@writefile{toc}{\defcounter {refsection}{0}\relax }\@writefile{toc}{\contentsline {section}{\numberline {7.8}\IeC {\'E}tude d'enchainement du programme}{113}{section.7.8}}
\@writefile{lof}{\defcounter {refsection}{0}\relax }\@writefile{lof}{\contentsline {figure}{\numberline {7.22}{\ignorespaces Etude d\IeC {\textquoteright }enchainement des programmes. \relax }}{114}{figure.caption.166}}
\newlabel{dgen}{{\M@TitleReference {7.22}{Etude d\IeC {\textquoteright }enchainement des programmes. \relax }}{114}{Etude d’enchainement des programmes. \relax }{figure.caption.166}{}}
\@writefile{toc}{\defcounter {refsection}{0}\relax }\@writefile{toc}{\contentsline {section}{\numberline {7.9}Simulation}{115}{section.7.9}}
\@writefile{toc}{\defcounter {refsection}{0}\relax }\@writefile{toc}{\contentsline {subsection}{Description du logiciel de traitement de flux de donn\IeC {\'e}es}{115}{section*.167}}
\@writefile{toc}{\defcounter {refsection}{0}\relax }\@writefile{toc}{\contentsline {subsection}{Pr\IeC {\'e}sentation Service Web}{115}{section*.168}}
\@writefile{lot}{\defcounter {refsection}{0}\relax }\@writefile{lot}{\contentsline {table}{\numberline {7.3}{\ignorespaces Le service web: API Rest\relax }}{116}{table.caption.169}}
\@writefile{toc}{\defcounter {refsection}{0}\relax }\@writefile{toc}{\contentsline {subsection}{Pr\IeC {\'e}sentation des interfaces graphiques}{116}{section*.170}}
\@writefile{toc}{\defcounter {refsection}{0}\relax }\@writefile{toc}{\contentsline {subsubsection}{Analyse et Traitement de flux de donn\IeC {\'e}es}{116}{section*.171}}
\@writefile{lof}{\defcounter {refsection}{0}\relax }\@writefile{lof}{\contentsline {figure}{\numberline {7.23}{\ignorespaces Pr\IeC {\'e}sentation de l'interface utilisateur. \relax }}{117}{figure.caption.172}}
\newlabel{dgen}{{\M@TitleReference {7.23}{Pr\IeC {\'e}sentation de l'interface utilisateur. \relax }}{117}{Présentation de l'interface utilisateur. \relax }{figure.caption.172}{}}
\@writefile{toc}{\defcounter {refsection}{0}\relax }\@writefile{toc}{\contentsline {subsection}{Quelques captures d'\IeC {\'e}crans }{117}{section*.173}}
\@writefile{lof}{\defcounter {refsection}{0}\relax }\@writefile{lof}{\contentsline {figure}{\numberline {7.24}{\ignorespaces Affichage des \IeC {\'e}v\IeC {\'e}nements sismiques. \relax }}{118}{figure.caption.174}}
\newlabel{dgen}{{\M@TitleReference {7.24}{Affichage des \IeC {\'e}v\IeC {\'e}nements sismiques. \relax }}{118}{Affichage des événements sismiques. \relax }{figure.caption.174}{}}
\@writefile{lof}{\defcounter {refsection}{0}\relax }\@writefile{lof}{\contentsline {figure}{\numberline {7.25}{\ignorespaces Traitement des signaux. \relax }}{118}{figure.caption.175}}
\newlabel{dgen}{{\M@TitleReference {7.25}{Traitement des signaux. \relax }}{118}{Traitement des signaux. \relax }{figure.caption.175}{}}
\@writefile{toc}{\defcounter {refsection}{0}\relax }\@writefile{toc}{\contentsline {chapter}{Glossaire}{120}{section*.176}}
\@writefile{toc}{\defcounter {refsection}{0}\relax }\@writefile{toc}{\contentsline {chapter}{Bibliographie}{122}{section*.179}}
\abx@aux@refcontextdefaultsdone
\abx@aux@defaultrefcontext{0}{bme_key}{nty/global/}
\abx@aux@defaultrefcontext{0}{calais_key}{nty/global/}
\abx@aux@defaultrefcontext{0}{preptit_key}{nty/global/}
\abx@aux@defaultrefcontext{0}{japan_sm_key}{nty/global/}
\abx@aux@defaultrefcontext{0}{japon_key}{nty/global/}
\abx@aux@defaultrefcontext{0}{sgbd_key}{nty/global/}
\abx@aux@defaultrefcontext{0}{sep_key}{nty/global/}
\abx@aux@defaultrefcontext{0}{guralp_key}{nty/global/}
\abx@aux@defaultrefcontext{0}{eystein_key}{nty/global/}
\abx@aux@defaultrefcontext{0}{ring_key}{nty/global/}
\abx@aux@defaultrefcontext{0}{svm_class_key}{nty/global/}
\abx@aux@defaultrefcontext{0}{jens_key}{nty/global/}
\abx@aux@defaultrefcontext{0}{jens2_key}{nty/global/}
\abx@aux@defaultrefcontext{0}{svmlight_key}{nty/global/}
\abx@aux@defaultrefcontext{0}{nstl_key}{nty/global/}
\abx@aux@defaultrefcontext{0}{filterp_key}{nty/global/}
\abx@aux@defaultrefcontext{0}{qt4_key}{nty/global/}
\abx@aux@defaultrefcontext{0}{zeste_key}{nty/global/}
\abx@aux@defaultrefcontext{0}{scott14_key}{nty/global/}
\abx@aux@defaultrefcontext{0}{obs_key}{nty/global/}
\abx@aux@defaultrefcontext{0}{pdna_key}{nty/global/}
\abx@aux@defaultrefcontext{0}{slink_key}{nty/global/}
\abx@aux@defaultrefcontext{0}{irisws_key}{nty/global/}
\abx@aux@defaultrefcontext{0}{soutou_key}{nty/global/}
\abx@aux@defaultrefcontext{0}{bjarne_key}{nty/global/}
\abx@aux@defaultrefcontext{0}{urgeo_key}{nty/global/}
\memsetcounter{lastsheet}{123}
\memsetcounter{lastpage}{124}
