\relax 
\catcode `:\active 
\catcode `;\active 
\catcode `!\active 
\catcode `?\active 
\pgfsyspdfmark {pgfid2}{20129218}{26049576}
\pgfsyspdfmark {pgfid1}{4736286}{47362867}
\select@language{french}
\@writefile{toc}{\select@language{french}}
\@writefile{lof}{\select@language{french}}
\@writefile{lot}{\select@language{french}}
